\select@language {spanish}
\addvspace {10\p@ }
\contentsline {figure}{\numberline {1.1}{\ignorespaces Consolas}}{8}{figure.1.1.1}
\contentsline {subfigure}{\numberline {(a)}{\ignorespaces {Python}}}{8}{figure.1.1.1}
\contentsline {subfigure}{\numberline {(b)}{\ignorespaces {iPython}}}{8}{figure.1.1.1}
\contentsline {figure}{\numberline {1.2}{\ignorespaces Consolas}}{9}{figure.1.1.2}
\contentsline {subfigure}{\numberline {(a)}{\ignorespaces {Python}}}{9}{figure.1.1.2}
\contentsline {subfigure}{\numberline {(b)}{\ignorespaces {iPython}}}{9}{figure.1.1.2}
\contentsline {figure}{\numberline {1.3}{\ignorespaces ipython notebook}}{10}{figure.1.1.3}
\contentsline {subfigure}{\numberline {(a)}{\ignorespaces {iPython 1}}}{10}{figure.1.1.3}
\contentsline {subfigure}{\numberline {(b)}{\ignorespaces {iPython 2}}}{10}{figure.1.1.3}
\contentsline {figure}{\numberline {1.4}{\ignorespaces Ejecuci\IeC {\'o}n programa}}{11}{figure.1.1.4}
\contentsline {subfigure}{\numberline {(a)}{\ignorespaces {Consola}}}{11}{figure.1.1.4}
\contentsline {subfigure}{\numberline {(b)}{\ignorespaces {C\IeC {\'o}digo}}}{11}{figure.1.1.4}
\addvspace {10\p@ }
\addvspace {10\p@ }
\contentsline {figure}{\numberline {2.1}{\ignorespaces N\IeC {\'u}meros enteros}}{21}{figure.2.2.1}
\contentsline {subfigure}{\numberline {(a)}{\ignorespaces {Python}}}{21}{figure.2.2.1}
\contentsline {subfigure}{\numberline {(b)}{\ignorespaces {iPython notebook}}}{21}{figure.2.2.1}
\contentsline {figure}{\numberline {2.2}{\ignorespaces N\IeC {\'u}meros flotantes}}{23}{figure.2.2.2}
\contentsline {subfigure}{\numberline {(a)}{\ignorespaces {Python}}}{23}{figure.2.2.2}
\contentsline {subfigure}{\numberline {(b)}{\ignorespaces {iPython notebook}}}{23}{figure.2.2.2}
\contentsline {figure}{\numberline {2.3}{\ignorespaces N\IeC {\'u}meros complejos}}{24}{figure.2.2.3}
\contentsline {subfigure}{\numberline {(a)}{\ignorespaces {Python}}}{24}{figure.2.2.3}
\contentsline {subfigure}{\numberline {(b)}{\ignorespaces {iPython notebook}}}{24}{figure.2.2.3}
\contentsline {figure}{\numberline {2.4}{\ignorespaces Tipo l\IeC {\'o}gico}}{25}{figure.2.2.4}
\contentsline {subfigure}{\numberline {(a)}{\ignorespaces {Python}}}{25}{figure.2.2.4}
\contentsline {subfigure}{\numberline {(b)}{\ignorespaces {iPython notebook}}}{25}{figure.2.2.4}
\contentsline {figure}{\numberline {2.5}{\ignorespaces Tipo Cadena}}{27}{figure.2.2.5}
\contentsline {subfigure}{\numberline {(a)}{\ignorespaces {Python}}}{27}{figure.2.2.5}
\contentsline {subfigure}{\numberline {(b)}{\ignorespaces {iPython notebook}}}{27}{figure.2.2.5}
\contentsline {figure}{\numberline {2.6}{\ignorespaces Tipo Lista y Tupla}}{30}{figure.2.2.6}
\contentsline {subfigure}{\numberline {(a)}{\ignorespaces {Python}}}{30}{figure.2.2.6}
\contentsline {subfigure}{\numberline {(b)}{\ignorespaces {iPython notebook}}}{30}{figure.2.2.6}
\contentsline {figure}{\numberline {2.7}{\ignorespaces Tipo dict}}{33}{figure.2.2.7}
\contentsline {subfigure}{\numberline {(a)}{\ignorespaces {Python}}}{33}{figure.2.2.7}
\contentsline {subfigure}{\numberline {(b)}{\ignorespaces {iPython notebook}}}{33}{figure.2.2.7}
\addvspace {10\p@ }
\contentsline {figure}{\numberline {3.1}{\ignorespaces Funciones incorporadas}}{43}{figure.2.3.1}
\contentsline {subfigure}{\numberline {(a)}{\ignorespaces {funciones}}}{43}{figure.2.3.1}
\addvspace {10\p@ }
\addvspace {10\p@ }
\contentsline {figure}{\numberline {5.1}{\ignorespaces Ej. matplotlib}}{65}{figure.2.5.1}
\contentsline {subfigure}{\numberline {(a)}{\ignorespaces {Python}}}{65}{figure.2.5.1}
\contentsline {figure}{\numberline {5.2}{\ignorespaces Gr\IeC {\'a}ficas con plot}}{66}{figure.2.5.2}
\contentsline {subfigure}{\numberline {(a)}{\ignorespaces {Cuadr\IeC {\'a}tica}}}{66}{figure.2.5.2}
\contentsline {subfigure}{\numberline {(b)}{\ignorespaces {Cuadr\IeC {\'a}tica}}}{66}{figure.2.5.2}
\contentsline {figure}{\numberline {5.3}{\ignorespaces Gr\IeC {\'a}ficas con plot}}{67}{figure.2.5.3}
\contentsline {subfigure}{\numberline {(a)}{\ignorespaces {Seno}}}{67}{figure.2.5.3}
\contentsline {subfigure}{\numberline {(b)}{\ignorespaces {Seno - coseno}}}{67}{figure.2.5.3}
\contentsline {figure}{\numberline {5.4}{\ignorespaces Gr\IeC {\'a}ficas con plot}}{68}{figure.2.5.4}
\contentsline {subfigure}{\numberline {(a)}{\ignorespaces {Distr.Normal}}}{68}{figure.2.5.4}
\contentsline {subfigure}{\numberline {(b)}{\ignorespaces {Datos}}}{68}{figure.2.5.4}
\contentsline {figure}{\numberline {5.5}{\ignorespaces Gr\IeC {\'a}fica con scatter}}{69}{figure.2.5.5}
\contentsline {figure}{\numberline {5.6}{\ignorespaces Gr\IeC {\'a}ficas con bar y barh}}{70}{figure.2.5.6}
\contentsline {subfigure}{\numberline {(a)}{\ignorespaces {barras 1}}}{70}{figure.2.5.6}
\contentsline {subfigure}{\numberline {(b)}{\ignorespaces {barras 2}}}{70}{figure.2.5.6}
\contentsline {subfigure}{\numberline {(c)}{\ignorespaces {barras 3}}}{70}{figure.2.5.6}
\contentsline {subfigure}{\numberline {(d)}{\ignorespaces {barras 4}}}{70}{figure.2.5.6}
\contentsline {figure}{\numberline {5.7}{\ignorespaces Gr\IeC {\'a}ficas apilado con bar y barh}}{71}{figure.2.5.7}
\contentsline {subfigure}{\numberline {(a)}{\ignorespaces {barras 5}}}{71}{figure.2.5.7}
\contentsline {subfigure}{\numberline {(b)}{\ignorespaces {barras 6}}}{71}{figure.2.5.7}
\contentsline {subfigure}{\numberline {(c)}{\ignorespaces {barras 7}}}{71}{figure.2.5.7}
\contentsline {figure}{\numberline {5.8}{\ignorespaces Gr\IeC {\'a}ficas con pie e hist}}{71}{figure.2.5.8}
\contentsline {subfigure}{\numberline {(a)}{\ignorespaces {tortas}}}{71}{figure.2.5.8}
\contentsline {subfigure}{\numberline {(b)}{\ignorespaces {histograma}}}{71}{figure.2.5.8}
\contentsline {figure}{\numberline {5.9}{\ignorespaces Gr\IeC {\'a}ficas con boxplot}}{72}{figure.2.5.9}
\contentsline {subfigure}{\numberline {(a)}{\ignorespaces {caja y bigotes 1}}}{72}{figure.2.5.9}
\contentsline {subfigure}{\numberline {(b)}{\ignorespaces {caja y bigotes 2}}}{72}{figure.2.5.9}
\addvspace {10\p@ }
\addvspace {10\p@ }
\addvspace {10\p@ }
\contentsline {figure}{\numberline {3.1}{\ignorespaces Ecuaci\IeC {\'o}n no lineal}}{87}{figure.3.3.1}
\contentsline {subfigure}{\numberline {(a)}{\ignorespaces {ipython notebook}}}{87}{figure.3.3.1}
\contentsline {figure}{\numberline {3.2}{\ignorespaces Ecuaci\IeC {\'o}n no lineal}}{88}{figure.3.3.2}
\contentsline {subfigure}{\numberline {(a)}{\ignorespaces {ipython notebook}}}{88}{figure.3.3.2}
\contentsline {figure}{\numberline {3.3}{\ignorespaces Ec. no lineal mejorada}}{90}{figure.3.3.3}
\contentsline {subfigure}{\numberline {(a)}{\ignorespaces {ipython notebook}}}{90}{figure.3.3.3}
\addvspace {10\p@ }
\addvspace {10\p@ }
\addvspace {10\p@ }
\addvspace {10\p@ }
\addvspace {10\p@ }
\addvspace {10\p@ }
