\relax 
\providecommand\hyper@newdestlabel[2]{}
\catcode `"\active 
\catcode `<\active 
\catcode `>\active 
\@nameuse{es@quoting}
\providecommand\HyperFirstAtBeginDocument{\AtBeginDocument}
\HyperFirstAtBeginDocument{\ifx\hyper@anchor\@undefined
\global\let\oldcontentsline\contentsline
\gdef\contentsline#1#2#3#4{\oldcontentsline{#1}{#2}{#3}}
\global\let\oldnewlabel\newlabel
\gdef\newlabel#1#2{\newlabelxx{#1}#2}
\gdef\newlabelxx#1#2#3#4#5#6{\oldnewlabel{#1}{{#2}{#3}}}
\AtEndDocument{\ifx\hyper@anchor\@undefined
\let\contentsline\oldcontentsline
\let\newlabel\oldnewlabel
\fi}
\fi}
\global\let\hyper@last\relax 
\gdef\HyperFirstAtBeginDocument#1{#1}
\providecommand\HyField@AuxAddToFields[1]{}
\providecommand\HyField@AuxAddToCoFields[2]{}
\select@language{spanish}
\@writefile{toc}{\select@language{spanish}}
\@writefile{lof}{\select@language{spanish}}
\@writefile{lot}{\select@language{spanish}}
\@writefile{toc}{\thispagestyle {empty}}
\@writefile{toc}{\contentsline {chapter}{\'{I}ndice de figuras}{\es@scroman  {viii}}{chapter*.1}}
\@writefile{toc}{\contentsline {chapter}{\'{I}ndice de cuadros}{\es@scroman  {ix}}{chapter*.2}}
\@writefile{toc}{\contentsline {chapter}{\IeC {\'I}ndice c\IeC {\'o}digos fuente}{\es@scroman  {xi}}{chapter*.3}}
\newlabel{lst:listings}{{}{\es@scroman  {xiv}}{\listtablename }{chapter*.4}{}}
\newpmemlabel{^_1}{14}
\@writefile{toc}{\contentsline {part}{I\hspace  {1em}Primeros pasos}{3}{part.1}}
\@writefile{toc}{\contentsline {chapter}{La base del lenguaje Python}{5}{chapter.1.1}}
\@writefile{lof}{\addvspace {10\p@ }}
\@writefile{lot}{\addvspace {10\p@ }}
\@writefile{toc}{\contentsline {section}{Introducci\IeC {\'o}n}{5}{section*.5}}
\newlabel{sec:introduccion1}{{1}{5}{Introducción}{section*.5}{}}
\@writefile{toc}{\contentsline {section}{Un lenguaje y varios paradigmas}{5}{section*.6}}
\newlabel{sec:lengvariosparad1}{{1}{5}{Un lenguaje y varios paradigmas}{section*.6}{}}
\@writefile{toc}{\contentsline {section}{Como obtengo e instalo Python}{6}{section*.7}}
\newlabel{sec:obtinspython}{{1}{6}{Como obtengo e instalo Python}{section*.7}{}}
\@writefile{toc}{\contentsline {section}{Usando Python}{7}{section*.8}}
\newlabel{sec:usospython}{{1}{7}{Usando Python}{section*.8}{}}
\@writefile{toc}{\contentsline {subsection}{Modo interactivo}{7}{section*.9}}
\@writefile{toc}{\contentsline {subsection}{Ejecuci\IeC {\'o}n de archivos}{7}{section*.10}}
\@writefile{lof}{\contentsline {figure}{\numberline {1.1}{\ignorespaces Consolas}}{8}{figure.1.1.1}}
\newlabel{fig-consola1}{{1.1}{8}{Consolas}{figure.1.1.1}{}}
\@writefile{lof}{\contentsline {subfigure}{\numberline{(a)}{\ignorespaces {Python}}}{8}{figure.1.1.1}}
\@writefile{lof}{\contentsline {subfigure}{\numberline{(b)}{\ignorespaces {iPython}}}{8}{figure.1.1.1}}
\@writefile{lof}{\contentsline {figure}{\numberline {1.2}{\ignorespaces Consolas}}{9}{figure.1.1.2}}
\newlabel{fig-consola2}{{1.2}{9}{Consolas}{figure.1.1.2}{}}
\@writefile{lof}{\contentsline {subfigure}{\numberline{(a)}{\ignorespaces {Python}}}{9}{figure.1.1.2}}
\@writefile{lof}{\contentsline {subfigure}{\numberline{(b)}{\ignorespaces {iPython}}}{9}{figure.1.1.2}}
\@writefile{lof}{\contentsline {figure}{\numberline {1.3}{\ignorespaces ipython notebook}}{10}{figure.1.1.3}}
\newlabel{fig-notebook1}{{1.3}{10}{ipython notebook}{figure.1.1.3}{}}
\@writefile{lof}{\contentsline {subfigure}{\numberline{(a)}{\ignorespaces {iPython 1}}}{10}{figure.1.1.3}}
\@writefile{lof}{\contentsline {subfigure}{\numberline{(b)}{\ignorespaces {iPython 2}}}{10}{figure.1.1.3}}
\@writefile{lof}{\contentsline {figure}{\numberline {1.4}{\ignorespaces Ejecuci\IeC {\'o}n programa}}{11}{figure.1.1.4}}
\newlabel{fig-programa1}{{1.4}{11}{Ejecución programa}{figure.1.1.4}{}}
\@writefile{lof}{\contentsline {subfigure}{\numberline{(a)}{\ignorespaces {Consola}}}{11}{figure.1.1.4}}
\@writefile{lof}{\contentsline {subfigure}{\numberline{(b)}{\ignorespaces {C\IeC {\'o}digo}}}{11}{figure.1.1.4}}
\@writefile{toc}{\contentsline {part}{II\hspace  {1em}A programar con Python}{13}{part.2}}
\@writefile{toc}{\contentsline {chapter}{Introducci\IeC {\'o}n}{15}{chapter.2.1}}
\@writefile{lof}{\addvspace {10\p@ }}
\@writefile{lot}{\addvspace {10\p@ }}
\@writefile{toc}{\contentsline {section}{Tareas}{15}{section*.11}}
\newlabel{sec:tareas}{{1}{15}{Tareas}{section*.11}{}}
\newlabel{lst:vseudocodigo001}{{1.1}{17}{verbos seudo codigo}{lstlisting.2.1.1}{}}
\@writefile{lol}{\contentsline {lstlisting}{\numberline {1.1}verbos seudo codigo}{17}{lstlisting.2.1.1}}
\@writefile{toc}{\contentsline {subsection}{Ejercicios de algoritmos}{17}{section*.12}}
\@writefile{toc}{\contentsline {chapter}{Tipos de Datos}{19}{chapter.2.2}}
\@writefile{lof}{\addvspace {10\p@ }}
\@writefile{lot}{\addvspace {10\p@ }}
\newlabel{lst:tipdat001}{{2.1}{19}{seudo codigo ej. 1}{lstlisting.2.2.1}{}}
\@writefile{lol}{\contentsline {lstlisting}{\numberline {2.1}seudo codigo ej. 1}{19}{lstlisting.2.2.1}}
\newlabel{lst:tipdat002}{{2.2}{19}{seudo codigo ej. 2}{lstlisting.2.2.2}{}}
\@writefile{lol}{\contentsline {lstlisting}{\numberline {2.2}seudo codigo ej. 2}{19}{lstlisting.2.2.2}}
\@writefile{toc}{\contentsline {section}{Tipos de Datos Num\IeC {\'e}ricos}{19}{section*.13}}
\newlabel{sec:tiponumerico}{{2}{19}{Tipos de Datos Numéricos}{section*.13}{}}
\@writefile{toc}{\contentsline {subsection}{Tipo int (Entero)}{20}{section*.14}}
\newlabel{subsec:tipoentero}{{2}{20}{Tipo int (Entero)}{section*.14}{}}
\@writefile{lof}{\contentsline {figure}{\numberline {2.1}{\ignorespaces N\IeC {\'u}meros enteros}}{21}{figure.2.2.1}}
\newlabel{fig-enteros1}{{2.1}{21}{Números enteros}{figure.2.2.1}{}}
\@writefile{lof}{\contentsline {subfigure}{\numberline{(a)}{\ignorespaces {Python}}}{21}{figure.2.2.1}}
\@writefile{lof}{\contentsline {subfigure}{\numberline{(b)}{\ignorespaces {iPython notebook}}}{21}{figure.2.2.1}}
\@writefile{toc}{\contentsline {subsection}{Tipo float (Punto Flotante)}{22}{section*.15}}
\newlabel{subsec:tipoflotante}{{2}{22}{Tipo float (Punto Flotante)}{section*.15}{}}
\@writefile{toc}{\contentsline {subsection}{Tipo complex (Complejo)}{22}{section*.16}}
\newlabel{subsec:tipocomplejo}{{2}{22}{Tipo complex (Complejo)}{section*.16}{}}
\@writefile{toc}{\contentsline {subsection}{Tipo bool (l\IeC {\'o}gico)}{22}{section*.17}}
\newlabel{subsec:tipologico}{{2}{22}{Tipo bool (lógico)}{section*.17}{}}
\@writefile{lof}{\contentsline {figure}{\numberline {2.2}{\ignorespaces N\IeC {\'u}meros flotantes}}{23}{figure.2.2.2}}
\newlabel{fig-flotante1}{{2.2}{23}{Números flotantes}{figure.2.2.2}{}}
\@writefile{lof}{\contentsline {subfigure}{\numberline{(a)}{\ignorespaces {Python}}}{23}{figure.2.2.2}}
\@writefile{lof}{\contentsline {subfigure}{\numberline{(b)}{\ignorespaces {iPython notebook}}}{23}{figure.2.2.2}}
\@writefile{lof}{\contentsline {figure}{\numberline {2.3}{\ignorespaces N\IeC {\'u}meros complejos}}{24}{figure.2.2.3}}
\newlabel{fig-complejo1}{{2.3}{24}{Números complejos}{figure.2.2.3}{}}
\@writefile{lof}{\contentsline {subfigure}{\numberline{(a)}{\ignorespaces {Python}}}{24}{figure.2.2.3}}
\@writefile{lof}{\contentsline {subfigure}{\numberline{(b)}{\ignorespaces {iPython notebook}}}{24}{figure.2.2.3}}
\@writefile{lof}{\contentsline {figure}{\numberline {2.4}{\ignorespaces Tipo l\IeC {\'o}gico}}{25}{figure.2.2.4}}
\newlabel{fig-logico1}{{2.4}{25}{Tipo lógico}{figure.2.2.4}{}}
\@writefile{lof}{\contentsline {subfigure}{\numberline{(a)}{\ignorespaces {Python}}}{25}{figure.2.2.4}}
\@writefile{lof}{\contentsline {subfigure}{\numberline{(b)}{\ignorespaces {iPython notebook}}}{25}{figure.2.2.4}}
\@writefile{toc}{\contentsline {subsection}{Ejercicios de n\IeC {\'u}meros}{25}{section*.18}}
\newlabel{lst:numeros1}{{2.3}{26}{Números}{lstlisting.2.2.3}{}}
\@writefile{lol}{\contentsline {lstlisting}{\numberline {2.3}N\IeC {\'u}meros}{26}{lstlisting.2.2.3}}
\@writefile{toc}{\contentsline {section}{Tipos de Datos Secuencia y Colecciones}{26}{section*.19}}
\@writefile{toc}{\contentsline {subsection}{Tipo str}{26}{section*.20}}
\newlabel{subsec:tipocadena}{{2}{26}{Tipo str}{section*.20}{}}
\@writefile{lof}{\contentsline {figure}{\numberline {2.5}{\ignorespaces Tipo Cadena}}{27}{figure.2.2.5}}
\newlabel{fig-cadena1}{{2.5}{27}{Tipo Cadena}{figure.2.2.5}{}}
\@writefile{lof}{\contentsline {subfigure}{\numberline{(a)}{\ignorespaces {Python}}}{27}{figure.2.2.5}}
\@writefile{lof}{\contentsline {subfigure}{\numberline{(b)}{\ignorespaces {iPython notebook}}}{27}{figure.2.2.5}}
\@writefile{toc}{\contentsline {subsection}{Ejercicios de cadenas}{28}{section*.21}}
\newlabel{lst:cadenas1}{{2.4}{28}{Cadenas}{lstlisting.2.2.4}{}}
\@writefile{lol}{\contentsline {lstlisting}{\numberline {2.4}Cadenas}{28}{lstlisting.2.2.4}}
\@writefile{toc}{\contentsline {subsection}{Tipo list y tuple (conjuntos, colecciones o ``bag'')}{28}{section*.22}}
\newlabel{subsec:tipolistastuplas}{{2}{28}{Tipo list y tuple (conjuntos, colecciones o ``bag'')}{section*.22}{}}
\@writefile{toc}{\contentsline {subsection}{Ejercicios de listas y tuplas}{29}{section*.23}}
\@writefile{lof}{\contentsline {figure}{\numberline {2.6}{\ignorespaces Tipo Lista y Tupla}}{30}{figure.2.2.6}}
\newlabel{fig-listatupla1}{{2.6}{30}{Tipo Lista y Tupla}{figure.2.2.6}{}}
\@writefile{lof}{\contentsline {subfigure}{\numberline{(a)}{\ignorespaces {Python}}}{30}{figure.2.2.6}}
\@writefile{lof}{\contentsline {subfigure}{\numberline{(b)}{\ignorespaces {iPython notebook}}}{30}{figure.2.2.6}}
\newlabel{lst:listastuplas1}{{2.5}{31}{Listas y Tuplas}{lstlisting.2.2.5}{}}
\@writefile{lol}{\contentsline {lstlisting}{\numberline {2.5}Listas y Tuplas}{31}{lstlisting.2.2.5}}
\@writefile{toc}{\contentsline {subsection}{M\IeC {\'a}s Colecciones}{31}{section*.24}}
\newlabel{subsec:tipocolecciones}{{2}{31}{Más Colecciones}{section*.24}{}}
\@writefile{toc}{\contentsline {subsection}{Ejercicios de colecciones}{32}{section*.25}}
\@writefile{lof}{\contentsline {figure}{\numberline {2.7}{\ignorespaces Tipo dict}}{33}{figure.2.2.7}}
\newlabel{fig-diccionario1}{{2.7}{33}{Tipo dict}{figure.2.2.7}{}}
\@writefile{lof}{\contentsline {subfigure}{\numberline{(a)}{\ignorespaces {Python}}}{33}{figure.2.2.7}}
\@writefile{lof}{\contentsline {subfigure}{\numberline{(b)}{\ignorespaces {iPython notebook}}}{33}{figure.2.2.7}}
\newlabel{lst:colecciones1}{{2.6}{34}{Colecciones}{lstlisting.2.2.6}{}}
\@writefile{lol}{\contentsline {lstlisting}{\numberline {2.6}Colecciones}{34}{lstlisting.2.2.6}}
\@writefile{toc}{\contentsline {chapter}{Operadores Simples y Funciones}{35}{chapter.2.3}}
\@writefile{lof}{\addvspace {10\p@ }}
\@writefile{lot}{\addvspace {10\p@ }}
\@writefile{toc}{\contentsline {section}{Operadores aplicados a n\IeC {\'u}meros}{35}{section*.26}}
\newlabel{sec:openumeros}{{3}{35}{Operadores aplicados a números}{section*.26}{}}
\@writefile{lot}{\contentsline {table}{\numberline {3.1}{\ignorespaces Operadores aritm\IeC {\'e}ticos}}{36}{table.2.3.1}}
\newlabel{tab-operadores1}{{3.1}{36}{Operadores aritméticos}{table.2.3.1}{}}
\@writefile{toc}{\contentsline {subsection}{Ejercicios de operadores num\IeC {\'e}ricos}{36}{section*.27}}
\newlabel{lst:openum1}{{3.1}{37}{Operadores numéricos}{lstlisting.2.3.1}{}}
\@writefile{lol}{\contentsline {lstlisting}{\numberline {3.1}Operadores num\IeC {\'e}ricos}{37}{lstlisting.2.3.1}}
\@writefile{toc}{\contentsline {section}{Operadores L\IeC {\'o}gicos}{37}{section*.28}}
\newlabel{sec:opelogicos}{{3}{37}{Operadores Lógicos}{section*.28}{}}
\@writefile{toc}{\contentsline {subsection}{Operadores sobre tipos L\IeC {\'o}gicos}{37}{section*.29}}
\@writefile{lot}{\contentsline {table}{\numberline {3.2}{\ignorespaces Operadores l\IeC {\'o}gicos}}{38}{table.2.3.2}}
\newlabel{tab-operadores2}{{3.2}{38}{Operadores lógicos}{table.2.3.2}{}}
\@writefile{lot}{\contentsline {table}{\numberline {3.3}{\ignorespaces Tablas de verdad}}{38}{table.2.3.3}}
\newlabel{tab-operadores3}{{3.3}{38}{Tablas de verdad}{table.2.3.3}{}}
\@writefile{toc}{\contentsline {subsection}{Operadores con resultado L\IeC {\'o}gico}{38}{section*.30}}
\@writefile{lot}{\contentsline {table}{\numberline {3.4}{\ignorespaces Operadores relacionales}}{39}{table.2.3.4}}
\newlabel{tab-operadores4}{{3.4}{39}{Operadores relacionales}{table.2.3.4}{}}
\@writefile{toc}{\contentsline {subsection}{Ejercicios con operadores L\IeC {\'o}gicos}{39}{section*.31}}
\newlabel{lst:opelogi1}{{3.2}{39}{Operadores lógicos}{lstlisting.2.3.2}{}}
\@writefile{lol}{\contentsline {lstlisting}{\numberline {3.2}Operadores l\IeC {\'o}gicos}{39}{lstlisting.2.3.2}}
\@writefile{toc}{\contentsline {section}{Operadores aplicados a Secuencias}{40}{section*.32}}
\newlabel{sec:opesecuencias}{{3}{40}{Operadores aplicados a Secuencias}{section*.32}{}}
\@writefile{lot}{\contentsline {table}{\numberline {3.5}{\ignorespaces Operadores relacionales}}{40}{table.2.3.5}}
\newlabel{tab-operadores5}{{3.5}{40}{Operadores relacionales}{table.2.3.5}{}}
\@writefile{toc}{\contentsline {subsection}{Ejercicios con operadores aplicados a secuencias}{40}{section*.33}}
\newlabel{lst:opesec1}{{3.3}{41}{Operadores de secuencias}{lstlisting.2.3.3}{}}
\@writefile{lol}{\contentsline {lstlisting}{\numberline {3.3}Operadores de secuencias}{41}{lstlisting.2.3.3}}
\@writefile{toc}{\contentsline {section}{Operador de asignaci\IeC {\'o}n y Declaraci\IeC {\'o}n de variables}{41}{section*.34}}
\newlabel{sec:opeasignacion}{{3}{41}{Operador de asignación y Declaración de variables}{section*.34}{}}
\@writefile{toc}{\contentsline {subsection}{Ejercicios declaraci\IeC {\'o}n de variables}{42}{section*.35}}
\newlabel{lst:decvar1}{{3.4}{42}{Declara variables 1}{lstlisting.2.3.4}{}}
\@writefile{lol}{\contentsline {lstlisting}{\numberline {3.4}Declara variables 1}{42}{lstlisting.2.3.4}}
\newlabel{lst:decvar2}{{3.5}{42}{Declara variables 2}{lstlisting.2.3.5}{}}
\@writefile{lol}{\contentsline {lstlisting}{\numberline {3.5}Declara variables 2}{42}{lstlisting.2.3.5}}
\@writefile{toc}{\contentsline {section}{Funciones incorporadas}{43}{section*.36}}
\newlabel{sec:funcincorporadas}{{3}{43}{Funciones incorporadas}{section*.36}{}}
\@writefile{lof}{\contentsline {figure}{\numberline {3.1}{\ignorespaces Funciones incorporadas}}{43}{figure.2.3.1}}
\newlabel{fig-funcionesbuiltin}{{3.1}{43}{Funciones incorporadas}{figure.2.3.1}{}}
\@writefile{lof}{\contentsline {subfigure}{\numberline{(a)}{\ignorespaces {funciones}}}{43}{figure.2.3.1}}
\@writefile{toc}{\contentsline {subsection}{Ejercicios de funciones}{45}{section*.37}}
\newlabel{lst:funciones1}{{3.6}{45}{Funciones incorporadas}{lstlisting.2.3.6}{}}
\@writefile{lol}{\contentsline {lstlisting}{\numberline {3.6}Funciones incorporadas}{45}{lstlisting.2.3.6}}
\newlabel{lst:programa001}{{3.7}{45}{Programa Ejemplo 1}{lstlisting.2.3.7}{}}
\@writefile{lol}{\contentsline {lstlisting}{\numberline {3.7}Programa Ejemplo 1}{45}{lstlisting.2.3.7}}
\newlabel{lst:programa002}{{3.8}{46}{Programa Ejemplo 2}{lstlisting.2.3.8}{}}
\@writefile{lol}{\contentsline {lstlisting}{\numberline {3.8}Programa Ejemplo 2}{46}{lstlisting.2.3.8}}
\@writefile{toc}{\contentsline {chapter}{Instrucciones control de flujo de programa}{47}{chapter.2.4}}
\@writefile{lof}{\addvspace {10\p@ }}
\@writefile{lot}{\addvspace {10\p@ }}
\@writefile{toc}{\contentsline {section}{instrucci\IeC {\'o}n ``if''}{47}{section*.38}}
\newlabel{sec:insif}{{4}{47}{instrucción ``if''}{section*.38}{}}
\newlabel{lst:progif001}{{4.1}{48}{Ejemplo if 1}{lstlisting.2.4.1}{}}
\@writefile{lol}{\contentsline {lstlisting}{\numberline {4.1}Ejemplo if 1}{48}{lstlisting.2.4.1}}
\newlabel{lst:progif002}{{4.2}{48}{Ejemplo if 2}{lstlisting.2.4.2}{}}
\@writefile{lol}{\contentsline {lstlisting}{\numberline {4.2}Ejemplo if 2}{48}{lstlisting.2.4.2}}
\newlabel{lst:progif003}{{4.3}{48}{Ejemplo if 3}{lstlisting.2.4.3}{}}
\@writefile{lol}{\contentsline {lstlisting}{\numberline {4.3}Ejemplo if 3}{48}{lstlisting.2.4.3}}
\newlabel{lst:progifalg001}{{4.4}{49}{Algoritmo Ejemplo 4}{lstlisting.2.4.4}{}}
\@writefile{lol}{\contentsline {lstlisting}{\numberline {4.4}Algoritmo Ejemplo 4}{49}{lstlisting.2.4.4}}
\newlabel{lst:programa004}{{4.5}{50}{Programa Ejemplo 4}{lstlisting.2.4.5}{}}
\@writefile{lol}{\contentsline {lstlisting}{\numberline {4.5}Programa Ejemplo 4}{50}{lstlisting.2.4.5}}
\@writefile{toc}{\contentsline {section}{Instrucciones de repetici\IeC {\'o}n}{50}{section*.39}}
\newlabel{sec:insrepeticion}{{4}{50}{Instrucciones de repetición}{section*.39}{}}
\@writefile{toc}{\contentsline {subsection}{Instrucci\IeC {\'o}n ``while''}{51}{section*.40}}
\newlabel{subsec:instwhile}{{4}{51}{Instrucción ``while''}{section*.40}{}}
\newlabel{lst:progwhialg003}{{4.6}{51}{Algoritmo while}{lstlisting.2.4.6}{}}
\@writefile{lol}{\contentsline {lstlisting}{\numberline {4.6}Algoritmo while}{51}{lstlisting.2.4.6}}
\newlabel{lst:programa005}{{4.7}{52}{Programa while}{lstlisting.2.4.7}{}}
\@writefile{lol}{\contentsline {lstlisting}{\numberline {4.7}Programa while}{52}{lstlisting.2.4.7}}
\@writefile{toc}{\contentsline {subsection}{Instrucci\IeC {\'o}n ``for''}{52}{section*.41}}
\newlabel{subsec:instfor}{{4}{52}{Instrucción ``for''}{section*.41}{}}
\newlabel{lst:progforalg003}{{4.8}{53}{Algoritmo for}{lstlisting.2.4.8}{}}
\@writefile{lol}{\contentsline {lstlisting}{\numberline {4.8}Algoritmo for}{53}{lstlisting.2.4.8}}
\newlabel{lst:programa006}{{4.9}{53}{Programa for}{lstlisting.2.4.9}{}}
\@writefile{lol}{\contentsline {lstlisting}{\numberline {4.9}Programa for}{53}{lstlisting.2.4.9}}
\newlabel{lst:propto001}{{4.10}{54}{Producto Punto}{lstlisting.2.4.10}{}}
\@writefile{lol}{\contentsline {lstlisting}{\numberline {4.10}Producto Punto}{54}{lstlisting.2.4.10}}
\newlabel{lst:calpol001}{{4.11}{54}{Cálculo Polinomio}{lstlisting.2.4.11}{}}
\@writefile{lol}{\contentsline {lstlisting}{\numberline {4.11}C\IeC {\'a}lculo Polinomio}{54}{lstlisting.2.4.11}}
\newlabel{lst:calpol002}{{4.12}{55}{Cálculo Polinomio}{lstlisting.2.4.12}{}}
\@writefile{toc}{\contentsline {section}{Funciones de Usuario}{55}{section*.42}}
\newlabel{lst:progwhialg053}{{4.13}{55}{Algoritmo while}{lstlisting.2.4.13}{}}
\@writefile{lol}{\contentsline {lstlisting}{\numberline {4.13}Algoritmo while}{55}{lstlisting.2.4.13}}
\newlabel{lst:programa055}{{4.14}{56}{Programa while}{lstlisting.2.4.14}{}}
\@writefile{lol}{\contentsline {lstlisting}{\numberline {4.14}Programa while}{56}{lstlisting.2.4.14}}
\@writefile{toc}{\contentsline {subsection}{Generalidades}{56}{section*.43}}
\@writefile{toc}{\contentsline {subsection}{Funciones}{57}{section*.44}}
\@writefile{toc}{\contentsline {subsection}{Procedimientos}{57}{section*.45}}
\@writefile{toc}{\contentsline {subsection}{Par\IeC {\'a}metros}{57}{section*.46}}
\@writefile{toc}{\contentsline {subsection}{Alcance de las variables}{58}{section*.47}}
\@writefile{toc}{\contentsline {subsubsection}{Importante}{58}{section*.48}}
\@writefile{toc}{\contentsline {chapter}{Paquetes de python para c\IeC {\'a}lculo y graficaci\IeC {\'o}n}{61}{chapter.2.5}}
\@writefile{lof}{\addvspace {10\p@ }}
\@writefile{lot}{\addvspace {10\p@ }}
\@writefile{toc}{\contentsline {section}{Los recursos de numpy}{62}{section*.49}}
\newlabel{sec:numpy}{{5}{62}{Los recursos de numpy}{section*.49}{}}
\@writefile{toc}{\contentsline {section}{Los recursos de matplotlib}{65}{section*.50}}
\@writefile{lof}{\contentsline {figure}{\numberline {5.1}{\ignorespaces Ej. matplotlib}}{65}{figure.2.5.1}}
\newlabel{fig-matplotlib0}{{5.1}{65}{Ej. matplotlib}{figure.2.5.1}{}}
\@writefile{lof}{\contentsline {subfigure}{\numberline{(a)}{\ignorespaces {Python}}}{65}{figure.2.5.1}}
\@writefile{toc}{\contentsline {subsection}{Usos de ``plot''.}{66}{section*.51}}
\newlabel{fig:matPlotLib1-a}{{5.2(a)}{66}{Subfigure 5 5.2(a)}{subfigure.5.2.1}{}}
\newlabel{sub@fig:matPlotLib1-a}{{(a)}{66}{Subfigure 5 5.2(a)\relax }{subfigure.5.2.1}{}}
\newlabel{fig:matPlotLib1-b}{{5.2(b)}{66}{Subfigure 5 5.2(b)}{subfigure.5.2.2}{}}
\newlabel{sub@fig:matPlotLib1-b}{{(b)}{66}{Subfigure 5 5.2(b)\relax }{subfigure.5.2.2}{}}
\@writefile{lof}{\contentsline {figure}{\numberline {5.2}{\ignorespaces Gr\IeC {\'a}ficas con plot}}{66}{figure.2.5.2}}
\newlabel{fig:matPlotLib1}{{5.2}{66}{Gráficas con plot}{figure.2.5.2}{}}
\@writefile{lof}{\contentsline {subfigure}{\numberline{(a)}{\ignorespaces {Cuadr\IeC {\'a}tica}}}{66}{figure.2.5.2}}
\@writefile{lof}{\contentsline {subfigure}{\numberline{(b)}{\ignorespaces {Cuadr\IeC {\'a}tica}}}{66}{figure.2.5.2}}
\newlabel{lst:matplot01}{{5.1}{66}{Programa cuadratica}{lstlisting.2.5.1}{}}
\@writefile{lol}{\contentsline {lstlisting}{\numberline {5.1}Programa cuadratica}{66}{lstlisting.2.5.1}}
\newlabel{fig:matPlotLib1-c}{{5.3(a)}{67}{Subfigure 5 5.3(a)}{subfigure.5.3.1}{}}
\newlabel{sub@fig:matPlotLib1-c}{{(a)}{67}{Subfigure 5 5.3(a)\relax }{subfigure.5.3.1}{}}
\newlabel{fig:matPlotLib1-d}{{5.3(b)}{67}{Subfigure 5 5.3(b)}{subfigure.5.3.2}{}}
\newlabel{sub@fig:matPlotLib1-d}{{(b)}{67}{Subfigure 5 5.3(b)\relax }{subfigure.5.3.2}{}}
\@writefile{lof}{\contentsline {figure}{\numberline {5.3}{\ignorespaces Gr\IeC {\'a}ficas con plot}}{67}{figure.2.5.3}}
\newlabel{fig:matPlotLib19}{{5.3}{67}{Gráficas con plot}{figure.2.5.3}{}}
\@writefile{lof}{\contentsline {subfigure}{\numberline{(a)}{\ignorespaces {Seno}}}{67}{figure.2.5.3}}
\@writefile{lof}{\contentsline {subfigure}{\numberline{(b)}{\ignorespaces {Seno - coseno}}}{67}{figure.2.5.3}}
\newlabel{lst:matplot02}{{5.2}{67}{Programa seno}{lstlisting.2.5.2}{}}
\@writefile{lol}{\contentsline {lstlisting}{\numberline {5.2}Programa seno}{67}{lstlisting.2.5.2}}
\newlabel{fig:matPlotLib1-e}{{5.4(a)}{68}{Subfigure 5 5.4(a)}{subfigure.5.4.1}{}}
\newlabel{sub@fig:matPlotLib1-e}{{(a)}{68}{Subfigure 5 5.4(a)\relax }{subfigure.5.4.1}{}}
\newlabel{fig:matPlotLib1-f}{{5.4(b)}{68}{Subfigure 5 5.4(b)}{subfigure.5.4.2}{}}
\newlabel{sub@fig:matPlotLib1-f}{{(b)}{68}{Subfigure 5 5.4(b)\relax }{subfigure.5.4.2}{}}
\@writefile{lof}{\contentsline {figure}{\numberline {5.4}{\ignorespaces Gr\IeC {\'a}ficas con plot}}{68}{figure.2.5.4}}
\newlabel{fig:matPlotLib199}{{5.4}{68}{Gráficas con plot}{figure.2.5.4}{}}
\@writefile{lof}{\contentsline {subfigure}{\numberline{(a)}{\ignorespaces {Distr.Normal}}}{68}{figure.2.5.4}}
\@writefile{lof}{\contentsline {subfigure}{\numberline{(b)}{\ignorespaces {Datos}}}{68}{figure.2.5.4}}
\newlabel{lst:matplot03}{{5.3}{68}{Programa distribucion}{lstlisting.2.5.3}{}}
\@writefile{lol}{\contentsline {lstlisting}{\numberline {5.3}Programa distribucion}{68}{lstlisting.2.5.3}}
\@writefile{lof}{\contentsline {figure}{\numberline {5.5}{\ignorespaces Gr\IeC {\'a}fica con scatter}}{69}{figure.2.5.5}}
\newlabel{fig-matPlotLib2-0}{{5.5}{69}{Gráfica con scatter}{figure.2.5.5}{}}
\@writefile{toc}{\contentsline {subsection}{Usos de ``scatter, bar, pie, hist y boxplot''.}{69}{section*.52}}
\@writefile{toc}{\contentsline {section}{Otros recursos}{69}{section*.53}}
\@writefile{toc}{\contentsline {subsection}{Los recursos de scipy}{69}{section*.54}}
\newlabel{fig-matPlotLib2-2}{{5.6(a)}{70}{Subfigure 5 5.6(a)}{subfigure.5.6.1}{}}
\newlabel{sub@fig-matPlotLib2-2}{{(a)}{70}{Subfigure 5 5.6(a)\relax }{subfigure.5.6.1}{}}
\newlabel{fig-matPlotLib2-3}{{5.6(b)}{70}{Subfigure 5 5.6(b)}{subfigure.5.6.2}{}}
\newlabel{sub@fig-matPlotLib2-3}{{(b)}{70}{Subfigure 5 5.6(b)\relax }{subfigure.5.6.2}{}}
\newlabel{fig-matPlotLib2-4}{{5.6(c)}{70}{Subfigure 5 5.6(c)}{subfigure.5.6.3}{}}
\newlabel{sub@fig-matPlotLib2-4}{{(c)}{70}{Subfigure 5 5.6(c)\relax }{subfigure.5.6.3}{}}
\newlabel{fig-matPlotLib2-5}{{5.6(d)}{70}{Subfigure 5 5.6(d)}{subfigure.5.6.4}{}}
\newlabel{sub@fig-matPlotLib2-5}{{(d)}{70}{Subfigure 5 5.6(d)\relax }{subfigure.5.6.4}{}}
\@writefile{lof}{\contentsline {figure}{\numberline {5.6}{\ignorespaces Gr\IeC {\'a}ficas con bar y barh}}{70}{figure.2.5.6}}
\newlabel{fig-matPlotLib2-1}{{5.6}{70}{Gráficas con bar y barh}{figure.2.5.6}{}}
\@writefile{lof}{\contentsline {subfigure}{\numberline{(a)}{\ignorespaces {barras 1}}}{70}{figure.2.5.6}}
\@writefile{lof}{\contentsline {subfigure}{\numberline{(b)}{\ignorespaces {barras 2}}}{70}{figure.2.5.6}}
\@writefile{lof}{\contentsline {subfigure}{\numberline{(c)}{\ignorespaces {barras 3}}}{70}{figure.2.5.6}}
\@writefile{lof}{\contentsline {subfigure}{\numberline{(d)}{\ignorespaces {barras 4}}}{70}{figure.2.5.6}}
\newlabel{fig-matPlotLib3-1}{{5.7(a)}{71}{Subfigure 5 5.7(a)}{subfigure.5.7.1}{}}
\newlabel{sub@fig-matPlotLib3-1}{{(a)}{71}{Subfigure 5 5.7(a)\relax }{subfigure.5.7.1}{}}
\newlabel{fig-matPlotLib3-2}{{5.7(b)}{71}{Subfigure 5 5.7(b)}{subfigure.5.7.2}{}}
\newlabel{sub@fig-matPlotLib3-2}{{(b)}{71}{Subfigure 5 5.7(b)\relax }{subfigure.5.7.2}{}}
\newlabel{fig-matPlotLib3-3}{{5.7(c)}{71}{Subfigure 5 5.7(c)}{subfigure.5.7.3}{}}
\newlabel{sub@fig-matPlotLib3-3}{{(c)}{71}{Subfigure 5 5.7(c)\relax }{subfigure.5.7.3}{}}
\@writefile{lof}{\contentsline {figure}{\numberline {5.7}{\ignorespaces Gr\IeC {\'a}ficas apilado con bar y barh}}{71}{figure.2.5.7}}
\newlabel{fig-matPlotLib3}{{5.7}{71}{Gráficas apilado con bar y barh}{figure.2.5.7}{}}
\@writefile{lof}{\contentsline {subfigure}{\numberline{(a)}{\ignorespaces {barras 5}}}{71}{figure.2.5.7}}
\@writefile{lof}{\contentsline {subfigure}{\numberline{(b)}{\ignorespaces {barras 6}}}{71}{figure.2.5.7}}
\@writefile{lof}{\contentsline {subfigure}{\numberline{(c)}{\ignorespaces {barras 7}}}{71}{figure.2.5.7}}
\newlabel{fig-matPlotLib4-1}{{5.8(a)}{71}{Subfigure 5 5.8(a)}{subfigure.5.8.1}{}}
\newlabel{sub@fig-matPlotLib4-1}{{(a)}{71}{Subfigure 5 5.8(a)\relax }{subfigure.5.8.1}{}}
\newlabel{fig-matPlotLib4-2}{{5.8(b)}{71}{Subfigure 5 5.8(b)}{subfigure.5.8.2}{}}
\newlabel{sub@fig-matPlotLib4-2}{{(b)}{71}{Subfigure 5 5.8(b)\relax }{subfigure.5.8.2}{}}
\@writefile{lof}{\contentsline {figure}{\numberline {5.8}{\ignorespaces Gr\IeC {\'a}ficas con pie e hist}}{71}{figure.2.5.8}}
\newlabel{fig-matPlotLib4}{{5.8}{71}{Gráficas con pie e hist}{figure.2.5.8}{}}
\@writefile{lof}{\contentsline {subfigure}{\numberline{(a)}{\ignorespaces {tortas}}}{71}{figure.2.5.8}}
\@writefile{lof}{\contentsline {subfigure}{\numberline{(b)}{\ignorespaces {histograma}}}{71}{figure.2.5.8}}
\newlabel{fig-matPlotLib5-1}{{5.9(a)}{72}{Subfigure 5 5.9(a)}{subfigure.5.9.1}{}}
\newlabel{sub@fig-matPlotLib5-1}{{(a)}{72}{Subfigure 5 5.9(a)\relax }{subfigure.5.9.1}{}}
\newlabel{fig-matPlotLib5-2}{{5.9(b)}{72}{Subfigure 5 5.9(b)}{subfigure.5.9.2}{}}
\newlabel{sub@fig-matPlotLib5-2}{{(b)}{72}{Subfigure 5 5.9(b)\relax }{subfigure.5.9.2}{}}
\@writefile{lof}{\contentsline {figure}{\numberline {5.9}{\ignorespaces Gr\IeC {\'a}ficas con boxplot}}{72}{figure.2.5.9}}
\newlabel{fig-matPlotLib5}{{5.9}{72}{Gráficas con boxplot}{figure.2.5.9}{}}
\@writefile{lof}{\contentsline {subfigure}{\numberline{(a)}{\ignorespaces {caja y bigotes 1}}}{72}{figure.2.5.9}}
\@writefile{lof}{\contentsline {subfigure}{\numberline{(b)}{\ignorespaces {caja y bigotes 2}}}{72}{figure.2.5.9}}
\@writefile{toc}{\contentsline {subsection}{Los recursos de simpy}{72}{section*.55}}
\@writefile{toc}{\contentsline {subsection}{Los recursos de pandas}{72}{section*.56}}
\@writefile{toc}{\contentsline {part}{III\hspace  {1em}Los m\IeC {\'e}todos num\IeC {\'e}ricos}{73}{part.3}}
\@writefile{toc}{\contentsline {chapter}{Error}{77}{chapter.3.1}}
\@writefile{lof}{\addvspace {10\p@ }}
\@writefile{lot}{\addvspace {10\p@ }}
\@writefile{toc}{\contentsline {section}{Ejercicios}{77}{section*.57}}
\@writefile{toc}{\contentsline {chapter}{Soluci\IeC {\'o}n de ecuaciones lineales}{79}{chapter.3.2}}
\@writefile{lof}{\addvspace {10\p@ }}
\@writefile{lot}{\addvspace {10\p@ }}
\@writefile{toc}{\contentsline {section}{M\IeC {\'e}todos directos}{79}{section*.58}}
\@writefile{toc}{\contentsline {subsection}{Eliminaci\IeC {\'o}n de Gauss}{79}{section*.59}}
\@writefile{toc}{\contentsline {subsection}{Estrategia de pivote}{79}{section*.60}}
\@writefile{toc}{\contentsline {subsection}{Factorizacion}{79}{section*.61}}
\@writefile{toc}{\contentsline {section}{M\IeC {\'e}todos iterativos}{79}{section*.62}}
\@writefile{toc}{\contentsline {subsection}{Jacobi y Gauss-Seidel}{79}{section*.63}}
\@writefile{toc}{\contentsline {subsection}{Convergencia}{79}{section*.64}}
\@writefile{toc}{\contentsline {section}{Ejercicios}{79}{section*.65}}
\@writefile{toc}{\contentsline {chapter}{Soluci\IeC {\'o}n de ecuaciones no lineales}{81}{chapter.3.3}}
\@writefile{lof}{\addvspace {10\p@ }}
\@writefile{lot}{\addvspace {10\p@ }}
\@writefile{toc}{\contentsline {section}{M\IeC {\'e}todo de bisecci\IeC {\'o}n}{81}{section*.66}}
\@writefile{toc}{\contentsline {section}{M\IeC {\'e}todo de Newton}{82}{section*.67}}
\@writefile{toc}{\contentsline {section}{M\IeC {\'e}todo de la secante}{83}{section*.68}}
\@writefile{toc}{\contentsline {section}{Raices de polinomios}{85}{section*.69}}
\@writefile{toc}{\contentsline {section}{Ejemplos}{85}{section*.70}}
\@writefile{toc}{\contentsline {subsection}{1}{85}{section*.71}}
\newlabel{eq0}{{3.1}{85}{1}{equation.3.3.0.1}{}}
\newlabel{lst:nolineal001}{{3.1}{86}{Plot no lineal}{lstlisting.3.3.1}{}}
\@writefile{lol}{\contentsline {lstlisting}{\numberline {3.1}Plot no lineal}{86}{lstlisting.3.3.1}}
\@writefile{toc}{\contentsline {subsection}{2}{86}{section*.72}}
\newlabel{eq1}{{3.2}{86}{2}{equation.3.3.0.2}{}}
\newlabel{eq2}{{3.3}{86}{2}{equation.3.3.0.3}{}}
\@writefile{lof}{\contentsline {figure}{\numberline {3.1}{\ignorespaces Ecuaci\IeC {\'o}n no lineal}}{87}{figure.3.3.1}}
\newlabel{fig-plotnolineal2}{{3.1}{87}{Ecuación no lineal}{figure.3.3.1}{}}
\@writefile{lof}{\contentsline {subfigure}{\numberline{(a)}{\ignorespaces {ipython notebook}}}{87}{figure.3.3.1}}
\newlabel{lst:nolineal11}{{3.2}{88}{Plot no lineal}{lstlisting.3.3.2}{}}
\@writefile{lol}{\contentsline {lstlisting}{\numberline {3.2}Plot no lineal}{88}{lstlisting.3.3.2}}
\@writefile{lof}{\contentsline {figure}{\numberline {3.2}{\ignorespaces Ecuaci\IeC {\'o}n no lineal}}{88}{figure.3.3.2}}
\newlabel{fig-plotnolineal1}{{3.2}{88}{Ecuación no lineal}{figure.3.3.2}{}}
\@writefile{lof}{\contentsline {subfigure}{\numberline{(a)}{\ignorespaces {ipython notebook}}}{88}{figure.3.3.2}}
\newlabel{:{lst:nolineal2}}{{3.3}{89}{Defino Funcion}{lstlisting.3.3.3}{}}
\@writefile{lol}{\contentsline {lstlisting}{\numberline {3.3}Defino Funcion}{89}{lstlisting.3.3.3}}
\newlabel{:{lst:nolineal0}}{{3.4}{89}{biseccion}{lstlisting.3.3.4}{}}
\@writefile{lol}{\contentsline {lstlisting}{\numberline {3.4}biseccion}{89}{lstlisting.3.3.4}}
\newlabel{:{lst:nolineal3}}{{3.5}{89}{Brentq secante}{lstlisting.3.3.5}{}}
\@writefile{lol}{\contentsline {lstlisting}{\numberline {3.5}Brentq secante}{89}{lstlisting.3.3.5}}
\newlabel{:{lst:nolineal4}}{{3.6}{89}{Newton}{lstlisting.3.3.6}{}}
\@writefile{lol}{\contentsline {lstlisting}{\numberline {3.6}Newton}{89}{lstlisting.3.3.6}}
\@writefile{lof}{\contentsline {figure}{\numberline {3.3}{\ignorespaces Ec. no lineal mejorada}}{90}{figure.3.3.3}}
\newlabel{fig-plotnolineal10}{{3.3}{90}{Ec. no lineal mejorada}{figure.3.3.3}{}}
\@writefile{lof}{\contentsline {subfigure}{\numberline{(a)}{\ignorespaces {ipython notebook}}}{90}{figure.3.3.3}}
\newlabel{lst:nolineal40}{{3.7}{90}{No lineal mejorada}{lstlisting.3.3.7}{}}
\@writefile{lol}{\contentsline {lstlisting}{\numberline {3.7}No lineal mejorada}{90}{lstlisting.3.3.7}}
\@writefile{toc}{\contentsline {section}{Ejercicios}{91}{section*.73}}
\newlabel{eqi0}{{3.4}{91}{Ejercicios}{equation.3.3.0.4}{}}
\newlabel{eqi1}{{3.5}{91}{Ejercicios}{equation.3.3.0.5}{}}
\newlabel{eqi2}{{3.6}{91}{Ejercicios}{equation.3.3.0.6}{}}
\newlabel{eqi3}{{3.7}{91}{Ejercicios}{equation.3.3.0.7}{}}
\newlabel{eqi4}{{3.8}{92}{Ejercicios}{equation.3.3.0.8}{}}
\newlabel{eqi5}{{3.9}{92}{Ejercicios}{equation.3.3.0.9}{}}
\@writefile{toc}{\contentsline {chapter}{Aproximaci\IeC {\'o}n de funciones y datos}{93}{chapter.3.4}}
\@writefile{lof}{\addvspace {10\p@ }}
\@writefile{lot}{\addvspace {10\p@ }}
\@writefile{toc}{\contentsline {section}{Interpolaci\IeC {\'o}n}{93}{section*.74}}
\@writefile{toc}{\contentsline {subsection}{Polin\IeC {\'o}mica de Lagrange}{93}{section*.75}}
\@writefile{toc}{\contentsline {subsection}{Con funciones splines}{93}{section*.76}}
\@writefile{toc}{\contentsline {section}{M\IeC {\'\i }nimos cuadrados}{93}{section*.77}}
\@writefile{toc}{\contentsline {subsection}{Discreta}{93}{section*.78}}
\@writefile{toc}{\contentsline {subsection}{Continua}{93}{section*.79}}
\@writefile{toc}{\contentsline {section}{Ejercicios}{93}{section*.80}}
\@writefile{toc}{\contentsline {chapter}{Derivaci\IeC {\'o}n e integraci\IeC {\'o}n num\IeC {\'e}ricas}{95}{chapter.3.5}}
\@writefile{lof}{\addvspace {10\p@ }}
\@writefile{lot}{\addvspace {10\p@ }}
\@writefile{toc}{\contentsline {section}{Derivaci\IeC {\'o}n num\IeC {\'e}rica}{95}{section*.81}}
\@writefile{toc}{\contentsline {subsection}{Derivadas primeras}{95}{section*.82}}
\@writefile{toc}{\contentsline {subsection}{Derivadas segundas}{95}{section*.83}}
\@writefile{toc}{\contentsline {subsection}{El error en la derivada num\IeC {\'e}rica}{95}{section*.84}}
\@writefile{toc}{\contentsline {section}{Integraci\IeC {\'o}n num\IeC {\'e}rica}{95}{section*.85}}
\@writefile{toc}{\contentsline {subsection}{Reglas de cuadratura b\IeC {\'a}sicas}{95}{section*.86}}
\@writefile{toc}{\contentsline {subsection}{Reglas de cuadratura compuestas}{95}{section*.87}}
\@writefile{toc}{\contentsline {subsection}{Cuadratura gaussiana}{95}{section*.88}}
\@writefile{toc}{\contentsline {section}{Ejercicios}{95}{section*.89}}
\@writefile{toc}{\contentsline {chapter}{Resoluci\IeC {\'o}n num\IeC {\'e}rica de problemas de valor inicial}{97}{chapter.3.6}}
\@writefile{lof}{\addvspace {10\p@ }}
\@writefile{lot}{\addvspace {10\p@ }}
\@writefile{toc}{\contentsline {section}{Problema de Cauchy}{97}{section*.90}}
\@writefile{toc}{\contentsline {section}{M\IeC {\'e}todos de Taylor}{97}{section*.91}}
\@writefile{toc}{\contentsline {section}{M\IeC {\'e}todos de Runge-Kutta}{97}{section*.92}}
\@writefile{toc}{\contentsline {section}{M\IeC {\'e}todos multipaso}{97}{section*.93}}
\@writefile{toc}{\contentsline {subsection}{Expl\IeC {\'\i }citos de Adams-Bashforth}{97}{section*.94}}
\@writefile{toc}{\contentsline {subsection}{Impl\IeC {\'\i }citos de Adams-Moulton}{97}{section*.95}}
\@writefile{toc}{\contentsline {subsection}{Predictor-Corrector}{97}{section*.96}}
\@writefile{toc}{\contentsline {section}{Ecuaciones de orden superior y sistemas de ecuaciones diferenciales}{97}{section*.97}}
\@writefile{toc}{\contentsline {section}{Ejercicios}{97}{section*.98}}
\@writefile{toc}{\contentsline {chapter}{Resoluci\IeC {\'o}n num\IeC {\'e}rica de PVF en dos puntos}{99}{chapter.3.7}}
\@writefile{lof}{\addvspace {10\p@ }}
\@writefile{lot}{\addvspace {10\p@ }}
\@writefile{toc}{\contentsline {section}{PVF e segundo orden en dos puntos}{99}{section*.99}}
\@writefile{toc}{\contentsline {section}{M\IeC {\'e}todo de disparo lineal}{99}{section*.100}}
\@writefile{toc}{\contentsline {section}{M\IeC {\'e}todos de diferencias finitas lineales}{99}{section*.101}}
\@writefile{toc}{\contentsline {section}{M\IeC {\'e}todo de disparo no lineal}{99}{section*.102}}
\@writefile{toc}{\contentsline {section}{M\IeC {\'e}todos de diferencias finitas no lineales}{99}{section*.103}}
\@writefile{toc}{\contentsline {section}{Ejercicios}{99}{section*.104}}
\@writefile{toc}{\contentsline {chapter}{M\IeC {\'e}todos num\IeC {\'e}ricos para ecuaciones en derivadas parciales}{101}{chapter.3.8}}
\@writefile{lof}{\addvspace {10\p@ }}
\@writefile{lot}{\addvspace {10\p@ }}
\@writefile{toc}{\contentsline {section}{Diferencias finitas para ecuaciones el\IeC {\'\i }pticas}{101}{section*.105}}
\@writefile{toc}{\contentsline {section}{Diferencias finitas para ecuaciones parab\IeC {\'o}licas}{101}{section*.106}}
\@writefile{toc}{\contentsline {section}{Diferencias finitas para ecuaciones hiperb\IeC {\'o}licas}{101}{section*.107}}
\@writefile{toc}{\contentsline {section}{Introducci\IeC {\'o}n al m\IeC {\'e}todo de los elementos finitos}{101}{section*.108}}
\@writefile{toc}{\contentsline {section}{Ejercicios}{101}{section*.109}}
\@writefile{toc}{\contentsline {part}{IV\hspace  {1em}\IeC {\'I}ndices y Anexos}{103}{part.4}}
\@writefile{toc}{\contentsline {chapter}{Anexos}{105}{section*.110}}
\@writefile{toc}{\contentsline {chapter}{Anexo I: Detalles de los objetos de Python}{107}{appendix.Alph1}}
\@writefile{lof}{\addvspace {10\p@ }}
\@writefile{lot}{\addvspace {10\p@ }}
\@writefile{toc}{\contentsline {section}{N\IeC {\'u}meros}{107}{section*.111}}
\@writefile{toc}{\contentsline {subsection}{Enteros ``clase int''}{107}{section*.112}}
\@writefile{toc}{\contentsline {subsection}{Reales ``clase float''}{110}{section*.113}}
\@writefile{toc}{\contentsline {subsection}{Complejos ``clase complex''}{111}{section*.114}}
\@writefile{toc}{\contentsline {subsection}{M\IeC {\'o}dulo ``number''}{112}{section*.115}}
\newlabel{ssec:modulonumber}{{A}{112}{Módulo ``number''}{section*.115}{}}
\@writefile{toc}{\contentsline {subsubsection}{Clase abstracta base ``number.Number''}{112}{section*.116}}
\newlabel{sssec:number}{{A}{112}{Clase abstracta base ``number.Number''}{section*.116}{}}
\@writefile{toc}{\contentsline {subsubsection}{Clase abstracta ``number.Complex''}{113}{section*.117}}
\newlabel{sssec:complex}{{A}{113}{Clase abstracta ``number.Complex''}{section*.117}{}}
\@writefile{toc}{\contentsline {subsubsection}{Clase abstracta ``number.Real''}{113}{section*.118}}
\newlabel{sssec:real}{{A}{113}{Clase abstracta ``number.Real''}{section*.118}{}}
\@writefile{toc}{\contentsline {subsubsection}{Clase abstracta base ``number.Rational''}{114}{section*.119}}
\newlabel{sssec:rational}{{A}{114}{Clase abstracta base ``number.Rational''}{section*.119}{}}
\@writefile{toc}{\contentsline {subsubsection}{Clase abstracta base ``number.Integral''}{114}{section*.120}}
\newlabel{sssec:integral}{{A}{114}{Clase abstracta base ``number.Integral''}{section*.120}{}}
\@writefile{toc}{\contentsline {subsubsection}{Clase ``decimal.Decimal''}{114}{section*.121}}
\newlabel{sssec:decimal}{{A}{114}{Clase ``decimal.Decimal''}{section*.121}{}}
\@writefile{toc}{\contentsline {subsubsection}{Clase ``fractions.Fraction''}{126}{section*.122}}
\newlabel{sssec:fraction}{{A}{126}{Clase ``fractions.Fraction''}{section*.122}{}}
\@writefile{toc}{\contentsline {section}{Iterables}{129}{section*.123}}
\newlabel{sec:iterable}{{A}{129}{Iterables}{section*.123}{}}
\@writefile{toc}{\contentsline {subsection}{Cadenas ``clase str''}{129}{section*.124}}
\newlabel{ssec:str}{{A}{129}{Cadenas ``clase str''}{section*.124}{}}
\@writefile{toc}{\contentsline {subsection}{Conjuntos ``clase list''}{129}{section*.125}}
\newlabel{ssec:list}{{A}{129}{Conjuntos ``clase list''}{section*.125}{}}
\@writefile{toc}{\contentsline {subsection}{Conjuntos ``clase tuple''}{129}{section*.126}}
\newlabel{ssec:tuple}{{A}{129}{Conjuntos ``clase tuple''}{section*.126}{}}
\@writefile{toc}{\contentsline {subsection}{Conjuntos ``clase set''}{129}{section*.127}}
\newlabel{ssec:set}{{A}{129}{Conjuntos ``clase set''}{section*.127}{}}
\@writefile{toc}{\contentsline {subsection}{Conjuntos ``clase frozenset''}{129}{section*.128}}
\newlabel{ssec:fset}{{A}{129}{Conjuntos ``clase frozenset''}{section*.128}{}}
\@writefile{toc}{\contentsline {subsection}{Diccionarios ``clase dict''}{129}{section*.129}}
\newlabel{ssec:dict}{{A}{129}{Diccionarios ``clase dict''}{section*.129}{}}
\@writefile{toc}{\contentsline {chapter}{\IeC {\'I}ndice alfab\IeC {\'e}tico}{129}{section*.129}}
